<svg xmlns="http://www.w3.org/2000/svg" xmlns:xlink="http://www.w3.org/1999/xlink" width="50" height="50" viewBox="0 0 50 50">
  <defs>
    <polygon id="cx-go-logo-mobile-a" points=".467 .501 42.444 .501 42.444 41.552 .467 41.552"/>
  </defs>
  <g fill="none" fill-rule="evenodd" transform="translate(2 3)">
    <path fill="#E3303D" d="M9.91454507,3.08631039 L41.9773469,3.08631039 L41.9773469,-0.000105194805 L9.90755315,-0.000105194805 C4.4355676,-0.000105194805 0,4.3376026 0,9.68886234 L0,41.0511156 L3.15604592,41.0511156 L3.15604592,9.6957 C3.15604592,6.04544026 6.18193452,3.08631039 9.91454507,3.08631039"/>
    <g transform="translate(2.69 2.585)">
      <mask id="cx-go-logo-mobile-b" fill="#fff">
        <use xlink:href="#cx-go-logo-mobile-a"/>
      </mask>
      <path fill="#3FA9F5" d="M39.2879849,0.500885065 L39.2879849,31.8563006 C39.2879849,35.5065604 36.2620963,38.4656903 32.5294858,38.4656903 L0.466683886,38.4656903 L0.466683886,41.5521058 L32.4886099,41.5521058 C37.9869496,41.5521058 42.4440308,37.1933591 42.4440308,31.8163266 L42.4440308,0.500885065 L39.2879849,0.500885065 Z" mask="url(#cx-go-logo-mobile-b)"/>
    </g>
    <path fill="#023185" d="M41.9771856,34.4416208 L41.9771856,3.08620519 L9.91438372,3.08620519 C6.18177317,3.08620519 3.15588457,6.04533506 3.15588457,9.69559481 L3.15588457,41.0510104 L35.2186864,41.0510104 C38.951297,41.0510104 41.9771856,38.0918805 41.9771856,34.4416208"/>
    <path fill="#FFF" d="M21.3860835 33.7576968C20.7670295 34.4830149 19.8919636 35.0452812 18.7608858 35.4450214 17.629808 35.8447617 16.3761027 36.0451578 15.0008455 36.0451578 13.5562068 36.0451578 12.2895933 35.736937 11.200467 35.1199695 10.1113408 34.5030019 9.2701588 33.6083201 8.67799681 32.4348721 8.08583482 31.26195 7.78195514 29.8828461 7.76689562 28.2980864L7.76689562 27.1882812C7.76689562 25.5588136 8.04764817 24.1481513 8.60969111 22.9557682 9.17119622 21.763911 9.98118346 20.8518721 11.0396528 20.2207032 12.0981222 19.5890084 13.3383816 19.2728981 14.7598931 19.2728981 16.7391448 19.2728981 18.2870487 19.7347032 19.4025291 20.6577877 20.5185474 21.5808721 21.1795529 22.9242097 21.3860835 24.6883266L18.0385665 24.6883266C17.8858199 23.7536708 17.5475185 23.0699045 17.0242 22.6365019 16.5003438 22.2030994 15.7801758 21.9863981 14.8631584 21.9863981 13.6938939 21.9863981 12.8032307 22.4161188 12.1917064 23.2755604 11.5801822 24.1350019 11.2709241 25.4131188 11.2633943 27.109911L11.2633943 28.1523916C11.2633943 29.863911 11.5957795 31.1567552 12.26055 32.03145 12.9258582 32.9056188 13.8998867 33.3427032 15.1842489 33.3427032 16.4756031 33.3427032 17.3963854 33.0739305 17.9465959 32.5358591L17.9465959 29.7218981 14.8169041 29.7218981 14.8169041 27.2440344 21.3860835 27.2440344 21.3860835 33.7576968zM33.8813469 27.2890578C33.8813469 25.5775383 33.5677861 24.2773305 32.9412024 23.3879084 32.3146186 22.4979604 31.4201905 22.0535123 30.2584558 22.0535123 29.1047887 22.0535123 28.2141254 22.4927006 27.5875417 23.3705513 26.9609579 24.2489279 26.6436322 25.5365123 26.6361025 27.2327786L26.6361025 28.0291032C26.6361025 29.6959149 26.9491254 30.9887591 27.5757092 31.9081617 28.2022929 32.8270383 29.1047887 33.2867396 30.2815829 33.2867396 31.43525 33.2867396 32.3221484 32.8443955 32.9412024 31.9586552 33.5602564 31.0729149 33.8732793 29.7816487 33.8813469 28.0853825L33.8813469 27.2890578zM37.366551 28.0291032C37.366551 29.6359539 37.0761173 31.0450383 36.49525 32.2558305 35.9143827 33.4666227 35.0828818 34.4007526 34.0018231 35.0582201 32.9202266 35.7162136 31.6799673 36.0449474 30.2815829 36.0449474 28.8982581 36.0449474 27.663915 35.7198955 26.5785536 35.0697916 25.4931922 34.4191617 24.652548 33.4908175 24.0566212 32.2837071 23.4601565 31.0765968 23.1584281 29.6885513 23.1508984 28.1185188L23.1508984 27.3111487C23.1508984 25.704824 23.4472483 24.2899539 24.0394103 23.0681162 24.6315723 21.8457526 25.4684515 20.9079409 26.550048 20.2541552 27.6316446 19.5998435 28.8676012 19.2732136 30.2584558 19.2732136 31.6493104 19.2732136 32.8858048 19.5998435 33.9674014 20.2541552 35.04846 20.9079409 35.8853393 21.8457526 36.4780391 23.0681162 37.0702011 24.2899539 37.366551 25.7006162 37.366551 27.3001032L37.366551 28.0291032z"/>
    <polygon fill="#FFF" points="17.002 7.923 10.624 15.407 7.771 15.407 14.148 7.923"/>
    <polygon fill="#FFF" points="20.861 7.923 14.484 15.407 11.631 15.407 18.009 7.923"/>
    <path fill="#FFF" d="M21.130233,14.5804208 L21.130233,13.0750831 C21.130233,12.6406286 21.4905859,12.2887519 21.9348418,12.2887519 L24.3508197,12.2887519 L24.3508197,13.0477325 L22.0596207,13.0477325 C21.9751798,13.0477325 21.9068741,13.1145312 21.9068741,13.1976351 L21.9068741,14.4925831 C21.9068741,14.5746351 21.9751798,14.6477455 22.0596207,14.6477455 L24.3508197,14.6477455 L24.3508197,15.4072519 L21.9482878,15.4072519 C21.5045697,15.4072519 21.1339979,15.062213 21.1339979,14.6277584 L21.130233,14.5804208 Z"/>
    <polygon fill="#FFF" points="22.558 13.523 24.351 13.523 24.351 14.173 24.003 14.173 22.558 14.173"/>
    <path fill="#FFF" d="M17.6728352 13.0749253C17.6728352 12.6409968 18.0331881 12.2885942 18.4769063 12.2885942L20.8616894 12.2885942 20.8616894 13.0481006 18.6016852 13.0481006C18.5172443 13.0481006 18.4494764 13.1143734 18.4494764 13.1974773L18.4494764 14.4924253C18.4494764 14.5744773 18.5172443 14.6481136 18.6016852 14.6481136L20.8616894 14.6481136 20.8616894 15.4076201 18.4908901 15.4076201C18.0466341 15.4076201 17.6728352 15.0147175 17.6728352 14.580263L17.6728352 13.0749253zM29.0074934 14.5804208L29.0074934 13.0750831C29.0074934 12.6406286 29.3678463 12.2887519 29.8121023 12.2887519L32.2280801 12.2887519 32.2280801 13.0477325 29.9368812 13.0477325C29.8524403 13.0477325 29.7841346 13.1145312 29.7841346 13.1976351L29.7841346 14.4925831C29.7841346 14.5746351 29.8524403 14.6477455 29.9368812 14.6477455L32.2280801 14.6477455 32.2280801 15.4072519 29.8255483 15.4072519C29.3812923 15.4072519 29.0107205 15.062213 29.0107205 14.6277584L29.0074934 14.5804208z"/>
    <polygon fill="#FFF" points="30.436 13.523 32.228 13.523 32.228 14.173 31.848 14.173 30.436 14.173"/>
    <path fill="#FFF" d="M25.486254 13.0479429L25.486254 15.4074623 24.7096129 15.4074623 24.7096129 12.2889623 26.9491792 12.2889623 27.8430695 12.2889623C28.2873255 12.2889623 28.6471405 12.640839 28.6471405 13.0747675L28.6471405 15.4074623 27.8570534 15.4074623 27.8570534 13.1973195C27.8570534 13.1142156 27.7887477 13.0479429 27.7048446 13.0479429L27.0669662 13.0479429 27.0669662 15.4074623 26.2763412 15.4074623 26.2763412 13.0479429 25.486254 13.0479429zM34.4267168 14.3056519L33.3913746 14.9431325 33.3913746 15.4075675 32.5878414 15.4075675 32.5878414 14.7532558C32.5948333 14.6264961 32.6647526 14.5044701 32.7814639 14.4345156L33.7522653 13.8480545 32.7814639 13.2615935C32.6647526 13.191639 32.5948333 13.069613 32.5878414 12.9428532L32.5878414 12.2890675 33.3913746 12.2890675 33.3913746 12.7535026 34.4326331 13.3904571 35.4674375 12.7535026 35.4674375 12.2890675 36.2715085 12.2890675 36.2715085 12.9428532C36.2645166 13.069613 36.1945974 13.191639 36.0773482 13.2615935L35.1280604 13.8448987 36.0773482 14.4345156C36.1945974 14.5044701 36.2645166 14.6264961 36.2715085 14.7532558L36.2715085 15.4075675 35.4674375 15.4075675 35.4674375 14.9431325 34.4267168 14.3056519z"/>
  </g>
</svg>
