<svg id="Layer_1" data-name="Layer 1" xmlns="http://www.w3.org/2000/svg" viewBox="0 0 301.06 199.02">
  <defs>
    <style>
      .cls-1 {
        fill: #2c98d4;
      }

      .cls-2 {
        fill: none;
        stroke: #2c98d4;
        stroke-linecap: round;
        stroke-linejoin: round;
        stroke-width: 6px;
      }
    </style>
  </defs>
  <title>dashboard-modules-icon</title>
  <g id="cards_icon">
    <path class="cls-1" d="M100.23,77.49v73.76H26.47V77.49h73.76m2-6H24.47a4,4,0,0,0-4,4v77.76a4,4,0,0,0,4,4h77.76a4,4,0,0,0,4-4V75.49a4,4,0,0,0-4-4Z" transform="translate(-20.47 -71.49)"/>
    <path class="cls-1" d="M207.88,77.49v73.76H134.12V77.49h73.76m2-6H132.12a4,4,0,0,0-4,4v77.76a4,4,0,0,0,4,4h77.76a4,4,0,0,0,4-4V75.49a4,4,0,0,0-4-4Z" transform="translate(-20.47 -71.49)"/>
    <path class="cls-1" d="M315.53,77.49v73.76H241.77V77.49h73.76m2-6H239.77a4,4,0,0,0-4,4v77.76a4,4,0,0,0,4,4h77.76a4,4,0,0,0,4-4V75.49a4,4,0,0,0-4-4Z" transform="translate(-20.47 -71.49)"/>
    <line class="cls-2" x1="5.35" y1="64.84" x2="81.02" y2="64.84"/>
    <line class="cls-2" x1="110.71" y1="64.84" x2="186.38" y2="64.84"/>
    <line class="cls-2" x1="219.12" y1="64.84" x2="294.8" y2="64.84"/>
    <line class="cls-2" x1="48.17" y1="31.42" x2="38.67" y2="40.92"/>
    <line class="cls-2" x1="33.35" y1="31.42" x2="23.85" y2="40.92"/>
    <line class="cls-2" x1="62.98" y1="31.42" x2="53.49" y2="40.92"/>
    <line class="cls-2" x1="155.17" y1="31.42" x2="145.67" y2="40.92"/>
    <line class="cls-2" x1="140.35" y1="31.42" x2="130.85" y2="40.92"/>
    <line class="cls-2" x1="169.98" y1="31.42" x2="160.49" y2="40.92"/>
    <line class="cls-2" x1="263.17" y1="31.42" x2="253.67" y2="40.92"/>
    <line class="cls-2" x1="248.35" y1="31.42" x2="238.85" y2="40.92"/>
    <line class="cls-2" x1="277.98" y1="31.42" x2="268.49" y2="40.92"/>
    <path class="cls-1" d="M100.23,190.75v73.76H26.47V190.75h73.76m2-6H24.47a4,4,0,0,0-4,4v77.76a4,4,0,0,0,4,4h77.76a4,4,0,0,0,4-4V188.75a4,4,0,0,0-4-4Z" transform="translate(-20.47 -71.49)"/>
    <path class="cls-1" d="M207.88,190.75v73.76H134.12V190.75h73.76m2-6H132.12a4,4,0,0,0-4,4v77.76a4,4,0,0,0,4,4h77.76a4,4,0,0,0,4-4V188.75a4,4,0,0,0-4-4Z" transform="translate(-20.47 -71.49)"/>
    <path class="cls-1" d="M315.53,190.75v73.76H241.77V190.75h73.76m2-6H239.77a4,4,0,0,0-4,4v77.76a4,4,0,0,0,4,4h77.76a4,4,0,0,0,4-4V188.75a4,4,0,0,0-4-4Z" transform="translate(-20.47 -71.49)"/>
    <line class="cls-2" x1="5.35" y1="178.09" x2="81.02" y2="178.09"/>
    <line class="cls-2" x1="110.71" y1="178.09" x2="186.38" y2="178.09"/>
    <line class="cls-2" x1="219.12" y1="178.09" x2="294.8" y2="178.09"/>
    <line class="cls-2" x1="48.17" y1="144.68" x2="38.67" y2="154.17"/>
    <line class="cls-2" x1="33.35" y1="144.68" x2="23.85" y2="154.17"/>
    <line class="cls-2" x1="62.98" y1="144.68" x2="53.49" y2="154.17"/>
    <line class="cls-2" x1="155.17" y1="144.68" x2="145.67" y2="154.17"/>
    <line class="cls-2" x1="140.35" y1="144.68" x2="130.85" y2="154.17"/>
    <line class="cls-2" x1="169.98" y1="144.68" x2="160.49" y2="154.17"/>
    <line class="cls-2" x1="263.17" y1="144.68" x2="253.67" y2="154.17"/>
    <line class="cls-2" x1="248.35" y1="144.68" x2="238.85" y2="154.17"/>
    <line class="cls-2" x1="277.98" y1="144.68" x2="268.49" y2="154.17"/>
  </g>
</svg>
