<svg id="Layer_1" data-name="Layer 1" xmlns="http://www.w3.org/2000/svg" viewBox="0 0 281.67 250.52">
  <defs>
    <style>
      .cls-1 {
        fill: #fff;
      }
    </style>
  </defs>
  <title>modals-icon-white</title>
  <g id="modals">
    <path class="cls-1" d="M274.67,250.52H7a7,7,0,0,1-7-7V7A7,7,0,0,1,7,0H274.67a7,7,0,0,1,7,7h0V243.53A7,7,0,0,1,274.67,250.52ZM7,6A1,1,0,0,0,6,7V243.52a1,1,0,0,0,1,1H274.67a1,1,0,0,0,1-1V7a1,1,0,0,0-1-1Z" transform="translate(0)"/>
    <path class="cls-1" d="M3.29,3V50.33H278.54V3ZM257,30.42a3,3,0,0,1-4.26,4.24L248,29.94l-4.72,4.72A3,3,0,0,1,239,30.42l4.73-4.73L239,21a3,3,0,1,1,4.09-4.39l.15.15L248,21.45l4.73-4.73a3,3,0,0,1,4.39,4.09L257,21l-4.73,4.73Z" transform="translate(0)"/>
    <rect class="cls-1" x="0.23" y="207.24" width="275.25" height="6"/>
    <rect class="cls-1" x="138.2" y="208.95" width="6" height="38.11"/>
    <rect class="cls-1" x="141.2" y="210.24" width="136.7" height="36.82"/>
  </g>
  <rect class="cls-1" x="21.92" y="74.96" width="181.81" height="26.22" rx="4" ry="4"/>
  <rect class="cls-1" x="21.92" y="114.29" width="135.66" height="26.22" rx="3.46" ry="3.46"/>
  <rect class="cls-1" x="21.92" y="153.63" width="207.16" height="26.22" rx="4.27" ry="4.27"/>
</svg>
