<svg id="Layer_1" data-name="Layer 1" xmlns="http://www.w3.org/2000/svg" viewBox="0 0 246.49 156.57">
  <defs>
    <style>
      .cls-1 {
        fill: #fff;
      }
    </style>
  </defs>
  <title>cards-icon-white</title>
  <g id="cards_icon" data-name="cards icon">
    <path class="cls-1" d="M144.84,23.8H40.41A5.37,5.37,0,0,0,35,29.17V57a5.37,5.37,0,0,0,5.37,5.37H144.84A5.37,5.37,0,0,0,150.21,57V29.17A5.37,5.37,0,0,0,144.84,23.8Z" transform="translate(-26.75 -23.8)"/>
  </g>
  <g id="cards_icon-2" data-name="cards icon">
    <path class="cls-1" d="M267.86,23.8H163.43a5.37,5.37,0,0,0-5.37,5.37V57a5.37,5.37,0,0,0,5.37,5.37H267.86A5.37,5.37,0,0,0,273.24,57V29.17A5.37,5.37,0,0,0,267.86,23.8Z" transform="translate(-26.75 -23.8)"/>
  </g>
  <g id="cards_icon-3" data-name="cards icon">
    <path class="cls-1" d="M267.86,71.61H163.43A5.37,5.37,0,0,0,158.06,77v27.88a5.37,5.37,0,0,0,5.37,5.37H267.86a5.37,5.37,0,0,0,5.37-5.37V77A5.37,5.37,0,0,0,267.86,71.61Z" transform="translate(-26.75 -23.8)"/>
  </g>
  <g id="cards_icon-4" data-name="cards icon">
    <path class="cls-1" d="M267.86,119.43H163.43a5.37,5.37,0,0,0-5.37,5.37v27.88a5.37,5.37,0,0,0,5.37,5.37H267.86a5.37,5.37,0,0,0,5.37-5.37V124.8A5.37,5.37,0,0,0,267.86,119.43Z" transform="translate(-26.75 -23.8)"/>
  </g>
  <polygon class="cls-1" points="0 96.34 54.85 103.14 69.24 156.57 99.2 58.32 0 96.34"/>
</svg>
