<?xml version="1.0" encoding="utf-8"?>
<!-- Generator: Adobe Illustrator 21.1.0, SVG Export Plug-In . SVG Version: 6.00 Build 0)  -->
<svg version="1.1" id="Layer_1" xmlns="http://www.w3.org/2000/svg" xmlns:xlink="http://www.w3.org/1999/xlink" x="0px" y="0px"
	 viewBox="0 0 48 47.9" style="enable-background:new 0 0 48 47.9;" xml:space="preserve">
<style type="text/css">
	.st0{fill:#FFFFFF;}
</style>
<title>warning-repeat</title>
<path d="M0,24C0,10.7,10.7,0,24,0s24,10.7,24,24S37.3,48,24,48S0,37.3,0,24"/>
<path class="st0" d="M19.9,21.1c0-1.1,0.9-2,2-2h4.3c1.1,0,2,0.9,2,2v16.6c0,1.1-0.9,2-2,2h-4.3c-1.1,0-2-0.9-2-2V21.1z M19.9,10.6
	c0-1.1,0.9-2,2-2h4.3c1.1,0,2,0.9,2,2v4.2c0,1.1-0.9,2-2,2h-4.3c-1.1,0-2-0.9-2-2V10.6z"/>
</svg>
