<?xml version="1.0" encoding="utf-8"?>
<!-- Generator: Adobe Illustrator 21.1.0, SVG Export Plug-In . SVG Version: 6.00 Build 0)  -->
<svg version="1.1" id="Layer_1" xmlns="http://www.w3.org/2000/svg" xmlns:xlink="http://www.w3.org/1999/xlink" x="0px" y="0px"
	 viewBox="0 0 14 14" style="enable-background:new 0 0 14 14;" xml:space="preserve">
<title>clock-icon</title>
<path id="Fill-1" d="M1.3,7c0,3.2,2.6,5.7,5.7,5.7s5.7-2.6,5.7-5.7S10.2,1.3,7,1.3C3.8,1.3,1.3,3.8,1.3,7C1.3,7,1.3,7,1.3,7 M6.8,0
	h0.4h0.2c0.8,0,1.6,0.2,2.3,0.5c2.2,0.9,3.8,2.9,4.2,5.2c0.1,0.3,0.1,0.7,0.1,1v0.4c0,0.3,0,0.6-0.1,0.9c-0.2,1.4-0.9,2.8-1.9,3.8
	c-1.1,1.1-2.5,1.8-4,2c-0.3,0-0.5,0.1-0.8,0.1H6.8H6.7c-0.8,0-1.6-0.2-2.3-0.5c-2.2-0.9-3.8-2.9-4.2-5.3C0.1,7.9,0,7.5,0,7.2V6.8
	c0-0.1,0-0.1,0-0.2c0.1-1.7,0.8-3.3,2-4.5c1.1-1.1,2.5-1.8,4-2L6.8,0"/>
<path id="Fill-4" d="M7.6,4.9c0,0.6,0,1.1,0,1.7c0,0.1,0,0.2,0.1,0.2l1.5,1.5C9.4,8.5,9.5,8.8,9.4,9C9.3,9.3,8.9,9.5,8.6,9.3
	c-0.1,0-0.1-0.1-0.2-0.1L6.6,7.4C6.5,7.3,6.4,7.2,6.4,7c0-1.3,0-2.6,0-3.8c0-0.3,0.3-0.6,0.6-0.6s0.6,0.3,0.6,0.6l0,0
	C7.6,3.7,7.6,4.3,7.6,4.9L7.6,4.9z"/>
</svg>
