<?xml version="1.0" encoding="utf-8"?>
<!-- Generator: Adobe Illustrator 21.1.0, SVG Export Plug-In . SVG Version: 6.00 Build 0)  -->
<svg version="1.1" id="Layer_1" xmlns="http://www.w3.org/2000/svg" xmlns:xlink="http://www.w3.org/1999/xlink" x="0px" y="0px"
	 viewBox="0 0 12 12" style="enable-background:new 0 0 12 12;" xml:space="preserve">
<path id="Fill-1" d="M6.8,6l5-5c0.2-0.2,0.2-0.6,0-0.8S11.2,0,11,0.2l-5,5l-5-5C0.8,0,0.4,0,0.2,0.2S0,0.8,0.2,1l5,5l-5,5
	c-0.2,0.2-0.2,0.6,0,0.8C0.3,11.9,0.4,12,0.6,12s0.3-0.1,0.4-0.2l5-5l5,5c0.1,0.1,0.3,0.2,0.4,0.2c0.1,0,0.3-0.1,0.4-0.2
	c0.2-0.2,0.2-0.6,0-0.8L6.8,6z"/>
</svg>
