<?xml version="1.0" encoding="utf-8"?>
<!-- Generator: Adobe Illustrator 21.1.0, SVG Export Plug-In . SVG Version: 6.00 Build 0)  -->
<svg version="1.1" id="Layer_1" xmlns="http://www.w3.org/2000/svg" xmlns:xlink="http://www.w3.org/1999/xlink" x="0px" y="0px"
	 viewBox="0 0 10 10" style="enable-background:new 0 0 10 10;" xml:space="preserve">
<title>plus</title>
<path id="plus" d="M5.5,5.5h4C9.8,5.5,10,5.3,10,5S9.8,4.5,9.5,4.5h-4v-4C5.5,0.2,5.3,0,5,0S4.5,0.2,4.5,0.5v4h-4C0.2,4.5,0,4.7,0,5
	s0.2,0.5,0.5,0.5h4v4C4.5,9.8,4.7,10,5,10s0.5-0.2,0.5-0.5V5.5z"/>
</svg>
