<?xml version="1.0" encoding="utf-8"?>
<!-- Generator: Adobe Illustrator 21.1.0, SVG Export Plug-In . SVG Version: 6.00 Build 0)  -->
<svg version="1.1" id="Layer_1" xmlns="http://www.w3.org/2000/svg" xmlns:xlink="http://www.w3.org/1999/xlink" x="0px" y="0px"
	 viewBox="0 0 16 14.4" style="enable-background:new 0 0 16 14.4;" xml:space="preserve">
<title>down-double</title>
<path d="M0.2,6.7c0.2-0.3,0.7-0.4,1-0.1c0,0,0,0,0,0L8,12.7l6.8-6.1c0.3-0.3,0.7-0.2,1,0.1c0,0,0,0,0,0C16.1,7,16,7.5,15.7,7.8
	l-7.3,6.5c-0.3,0.2-0.7,0.2-0.9,0L0.3,7.7C0,7.5-0.1,7,0.2,6.7"/>
<path d="M0.2,0.3c0.2-0.3,0.7-0.4,1-0.1c0,0,0,0,0,0L8,6.2l6.8-6.1c0.3-0.3,0.7-0.2,1,0.1c0,0,0,0,0,0c0.2,0.3,0.2,0.8-0.1,1.1
	L8.5,7.8c-0.3,0.2-0.7,0.2-0.9,0L0.3,1.3C0,1.1-0.1,0.6,0.2,0.3"/>
</svg>
