<?xml version="1.0" encoding="utf-8"?>
<!-- Generator: Adobe Illustrator 21.1.0, SVG Export Plug-In . SVG Version: 6.00 Build 0)  -->
<svg version="1.1" id="Layer_1" xmlns="http://www.w3.org/2000/svg" xmlns:xlink="http://www.w3.org/1999/xlink" x="0px" y="0px"
	 viewBox="0 0 13.5 16" style="enable-background:new 0 0 13.5 16;" xml:space="preserve">
<title>left-double</title>
<path id="Fill-1" d="M7.2,15.8c0.3-0.3,0.3-0.7,0.1-1L1.6,8l5.7-6.8c0.3-0.3,0.2-0.8-0.1-1S6.5,0,6.2,0.3l0,0L0.2,7.5
	C0,7.8,0,8.2,0.2,8.4l6.1,7.3C6.5,16,6.9,16.1,7.2,15.8"/>
<path id="Fill-4" d="M13.2,15.8c0.3-0.3,0.3-0.7,0.1-1L7.6,8l5.7-6.8c0.3-0.3,0.2-0.8-0.1-1s-0.8-0.2-1,0.1L6.2,7.5
	C6,7.8,6,8.2,6.2,8.4l6.1,7.3C12.5,16,12.9,16.1,13.2,15.8"/>
</svg>
