<?xml version="1.0" encoding="utf-8"?>
<!-- Generator: Adobe Illustrator 21.1.0, SVG Export Plug-In . SVG Version: 6.00 Build 0)  -->
<svg version="1.1" id="Layer_1" xmlns="http://www.w3.org/2000/svg" xmlns:xlink="http://www.w3.org/1999/xlink" x="0px" y="0px"
	 viewBox="0 0 13.5 16" style="enable-background:new 0 0 13.5 16;" xml:space="preserve">
<title>right-double</title>
<path d="M0.3,15.8c-0.3-0.3-0.3-0.7-0.1-1L5.9,8L0.2,1.2c-0.3-0.3-0.2-0.7,0.1-1S1,0,1.3,0.2c0,0,0,0,0,0l6.1,7.3
	c0.2,0.3,0.2,0.6,0,0.9l-6.1,7.3C1,16,0.6,16.1,0.3,15.8"/>
<path d="M13.5,8c0,0.2-0.1,0.3-0.2,0.5l-6.1,7.3c-0.3,0.3-0.7,0.3-1,0.1c-0.3-0.3-0.3-0.7-0.1-1L11.9,8L6.2,1.2
	C5.9,0.9,6,0.4,6.3,0.2C6.5-0.1,7,0,7.3,0.2c0,0,0,0,0,0l6.1,7.3C13.4,7.7,13.5,7.8,13.5,8z"/>
</svg>
