<?xml version="1.0" encoding="utf-8"?>
<!-- Generator: Adobe Illustrator 21.1.0, SVG Export Plug-In . SVG Version: 6.00 Build 0)  -->
<svg version="1.1" id="Layer_1" xmlns="http://www.w3.org/2000/svg" xmlns:xlink="http://www.w3.org/1999/xlink" x="0px" y="0px"
	 viewBox="0 0 24 24" style="enable-background:new 0 0 24 24;" xml:space="preserve">
<title>down-rounded</title>
<path d="M18.9,9.2C18.7,9,18.3,8.9,18,9.1c0,0,0,0,0,0l-6,5l-6-5C5.7,8.9,5.3,9,5.1,9.2c-0.2,0.3-0.2,0.7,0.1,0.9l6.4,5.3
	c0.1,0.1,0.3,0.1,0.4,0.1c0.1,0,0.3,0,0.4-0.1l6.4-5.3C19.1,9.9,19.2,9.5,18.9,9.2C18.9,9.3,18.9,9.2,18.9,9.2z"/>
<path d="M12,0C5.4,0,0,5.4,0,12s5.4,12,12,12s12-5.4,12-12S18.6,0,12,0z M12,22.9C6,22.9,1.1,18,1.1,12C1.1,6,6,1.1,12,1.1
	C18,1.1,22.9,6,22.9,12C22.9,18,18,22.9,12,22.9z"/>
</svg>
