<?xml version="1.0" encoding="utf-8"?>
<!-- Generator: Adobe Illustrator 21.1.0, SVG Export Plug-In . SVG Version: 6.00 Build 0)  -->
<svg version="1.1" id="Layer_1" xmlns="http://www.w3.org/2000/svg" xmlns:xlink="http://www.w3.org/1999/xlink" x="0px" y="0px"
	 viewBox="0 0 24 24" style="enable-background:new 0 0 24 24;" xml:space="preserve">
<title>left-rounded</title>
<path id="Fill-1" d="M9.9,12l5,6c0.2,0.3,0.2,0.7-0.1,0.9s-0.7,0.2-0.9-0.1l-5.3-6.4c-0.1-0.1-0.1-0.3-0.1-0.4c0-0.1,0-0.3,0.1-0.4
	l5.3-6.4c0.2-0.3,0.6-0.3,0.9-0.1c0.3,0.2,0.3,0.6,0.1,0.9L9.9,12z"/>
<path id="Fill-3" d="M12,1.1C6,1.1,1.1,6,1.1,12S6,22.9,12,22.9S22.9,18,22.9,12C22.9,6,18,1.1,12,1.1 M12,24C5.4,24,0,18.6,0,12
	S5.4,0,12,0s12,5.4,12,12S18.6,24,12,24"/>
</svg>
