<svg xmlns="http://www.w3.org/2000/svg" xmlns:xlink="http://www.w3.org/1999/xlink" width="480" height="480" viewBox="0 0 480 480">
  <defs>
    <polygon id="maintenance-graphic-web-a" points="0 347 406.173 347 406.173 .722 0 .722"/>
    <polygon id="maintenance-graphic-web-c" points="0 347 406.173 347 406.173 .722 0 .722"/>
  </defs>
  <g fill="none" fill-rule="evenodd" transform="translate(18 18)">
    <circle cx="222" cy="222" r="222" fill="#3FA9F5" opacity=".1"/>
    <g transform="translate(22 21)">
      <polygon stroke="#3FA9F5" stroke-linecap="round" stroke-linejoin="round" stroke-width="2.804" points="323.975 189.83 264 189.83 293.984 160"/>
      <polygon stroke="#3FA9F5" stroke-linecap="round" stroke-linejoin="round" stroke-width="5.899" points="50 84 109.975 84 79.987 113.833"/>
      <polygon stroke="#3FA9F5" stroke-linecap="round" stroke-linejoin="round" stroke-width="5.899" points="126.97 13 110 93.695 143.944 93.695"/>
      <polygon stroke="#3FA9F5" stroke-linecap="round" stroke-linejoin="round" stroke-width="5.899" points="127.125 3.672 294.032 84.367 144.099 84.367"/>
      <mask id="maintenance-graphic-web-b" fill="#fff">
        <use xlink:href="#maintenance-graphic-web-a"/>
      </mask>
      <polygon stroke="#3FA9F5" stroke-linecap="round" stroke-linejoin="round" stroke-width="5.899" points="2.95 124.952 50.18 124.952 50.18 77.517 2.95 77.517" mask="url(#maintenance-graphic-web-b)"/>
      <polygon stroke="#3FA9F5" stroke-linecap="round" stroke-linejoin="round" stroke-width="5.899" points="41.359 77.673 127.125 3.672 110.155 84.367 50.18 84.367 50.18 77.673" mask="url(#maintenance-graphic-web-b)"/>
      <path stroke="#3FA9F5" stroke-linecap="round" stroke-linejoin="round" stroke-width="5.899" d="M50 115L109.975 115M294 118L294 149.506"/>
      <g>
        <path stroke="#3FA9F5" stroke-linecap="round" stroke-linejoin="round" stroke-width="2.991" d="M294.1284,150.7054 C297.1154,150.7054 299.5364,153.1274 299.5364,156.1144 C299.5364,159.1014 297.1154,161.5224 294.1284,161.5224 C291.1414,161.5224 288.7194,159.1014 288.7194,156.1144 C288.7194,153.1274 291.1414,150.7054 294.1284,150.7054 Z"/>
        <path stroke="#3FA9F5" stroke-linecap="round" stroke-width="9.134" d="M17.7435,342.4329 L401.6055,342.4329"/>
        <mask id="maintenance-graphic-web-d" fill="#fff">
          <use xlink:href="#maintenance-graphic-web-c"/>
        </mask>
        <polygon stroke="#3FA9F5" stroke-linecap="round" stroke-linejoin="round" stroke-width="4.567" points="201.422 319.294 386.839 319.294 386.839 189.925 201.422 189.925" mask="url(#maintenance-graphic-web-d)"/>
        <path fill="#3FA9F5" d="M377.8486 196.5618C379.0546 196.5618 380.0326 197.5398 380.0326 198.7458 380.0326 199.9518 379.0546 200.9298 377.8486 200.9298 376.6426 200.9298 375.6646 199.9518 375.6646 198.7458 375.6646 197.5398 376.6426 196.5618 377.8486 196.5618M369.0236 196.5618C370.2296 196.5618 371.2076 197.5398 371.2076 198.7458 371.2076 199.9518 370.2296 200.9298 369.0236 200.9298 367.8176 200.9298 366.8396 199.9518 366.8396 198.7458 366.8396 197.5398 367.8176 196.5618 369.0236 196.5618M360.1948 196.5618C361.4008 196.5618 362.3788 197.5398 362.3788 198.7458 362.3788 199.9518 361.4008 200.9298 360.1948 200.9298 358.9888 200.9298 358.0108 199.9518 358.0108 198.7458 358.0108 197.5398 358.9888 196.5618 360.1948 196.5618" mask="url(#maintenance-graphic-web-d)"/>
        <polygon stroke="#3FA9F5" stroke-linecap="round" stroke-linejoin="round" stroke-width="5.899" points="110.154 342.433 144.099 342.433 144.099 93.44 110.154 93.44" mask="url(#maintenance-graphic-web-d)"/>
        <polygon stroke="#3FA9F5" stroke-linecap="round" stroke-linejoin="round" stroke-width="5.899" points="143.955 118.312 346.007 118.312 346.007 84.367 143.955 84.367" mask="url(#maintenance-graphic-web-d)"/>
        <polygon stroke="#3FA9F5" stroke-linecap="round" stroke-linejoin="round" stroke-width="5.899" points="144.565 84.189 204.54 84.189 174.553 114.022" mask="url(#maintenance-graphic-web-d)"/>
        <polygon stroke="#3FA9F5" stroke-linecap="round" stroke-linejoin="round" stroke-width="5.899" points="200.777 84.189 260.752 84.189 230.764 114.022" mask="url(#maintenance-graphic-web-d)"/>
        <polygon stroke="#3FA9F5" stroke-linecap="round" stroke-linejoin="round" stroke-width="5.899" points="256.988 84.189 316.962 84.189 286.974 114.022" mask="url(#maintenance-graphic-web-d)"/>
        <path stroke="#3FA9F5" stroke-linecap="round" stroke-linejoin="round" stroke-width="5.899" d="M313.1984,84.1888 L343.1854,114.0218" mask="url(#maintenance-graphic-web-d)"/>
        <path stroke="#3FA9F5" stroke-linecap="round" stroke-linejoin="round" stroke-width="4.567" d="M201.4216,206.9495 L386.8386,206.9495" mask="url(#maintenance-graphic-web-d)"/>
        <polygon fill="#3FA9F5" points="307.865 238.044 275.014 277.466 260.318 277.466 293.169 238.044" mask="url(#maintenance-graphic-web-d)"/>
        <polygon fill="#3FA9F5" points="327.746 238.044 294.895 277.466 280.201 277.466 313.051 238.044" mask="url(#maintenance-graphic-web-d)"/>
        <polygon stroke="#3FA9F5" stroke-linecap="round" stroke-linejoin="round" stroke-width="5.899" points="144.099 270.422 144.099 330.397 114.265 300.409" mask="url(#maintenance-graphic-web-d)"/>
        <polygon stroke="#3FA9F5" stroke-linecap="round" stroke-linejoin="round" stroke-width="5.899" points="144.099 212.485 144.099 272.46 114.265 242.472" mask="url(#maintenance-graphic-web-d)"/>
        <polygon stroke="#3FA9F5" stroke-linecap="round" stroke-linejoin="round" stroke-width="5.899" points="144.099 152.51 144.099 212.485 114.265 182.498" mask="url(#maintenance-graphic-web-d)"/>
        <polygon stroke="#3FA9F5" stroke-linecap="round" stroke-linejoin="round" stroke-width="5.899" points="144.099 93.44 144.099 153.415 114.265 123.427" mask="url(#maintenance-graphic-web-d)"/>
      </g>
    </g>
  </g>
</svg>
