<?xml version="1.0" encoding="utf-8"?>
<!-- Generator: Adobe Illustrator 21.1.0, SVG Export Plug-In . SVG Version: 6.00 Build 0)  -->
<svg version="1.0" id="Layer_1" xmlns="http://www.w3.org/2000/svg" xmlns:xlink="http://www.w3.org/1999/xlink" x="0px" y="0px"
	 viewBox="0 0 321.6 281.9" style="enable-background:new 0 0 321.6 281.9;" xml:space="preserve">
<style type="text/css">
	.st0{fill:#FFFFFF;}
</style>
<title>cards-icon-white</title>
<polygon class="st0" points="107.5,225 25.3,142.9 104,64.2 91.5,51.7 0.2,142.9 8.6,151.3 8.6,151.2 95,237.5 "/>
<polygon class="st0" points="213.2,64.2 295.4,146.4 216.7,225 229.2,237.5 320.5,146.3 312.2,137.9 312.1,138 225.7,51.7 "/>
<polygon class="st0" points="141.2,264.5 126.1,260.1 182.2,15.9 197.2,20.4 "/>
</svg>
